00:02:45	Ren Hong:	I thought I heard music
00:03:07	Les Bell:	You did, and do.
00:03:29	Ren Hong:	turn up the music :)
00:04:02	Les Bell:	Migra, by Santana. A bit of nice Latin rock.
00:04:54	Ali Achi:	yes
00:05:51	Anthony Skandalakis:	good
00:08:54	Aprajita Shrivas:	doubts while calculating output of linear feedback shift register.
00:11:34	Jeffrey Huang:	72314
00:11:42	Ren Hong:	Can't review the quiz forgot what I had...
00:11:57	Jeffrey Huang:	just found the paper I wrote it on LOOL
00:12:08	Naman Rao:	72314
00:12:40	Ren Hong:	my paper were long lost in the void...
00:13:05	Thanh Minh Tien Ngo:	FUBSWRCRRORJB
00:13:08	Naman Rao:	FUBSWRCRRORJB
00:13:09	Ali Achi:	FUBSWRCRRORJB
00:13:54	Aprajita Shrivas:	6
00:14:13	Ren Hong:	32
00:15:30	Aprajita Shrivas:	49
00:15:31	Tarun Singh:	49
00:16:08	Jeffrey Huang:	4
00:28:01	Naman Rao:	 lift(Mod(a^(p-1),p)
00:33:20	Thanh Minh Tien Ngo:	log(p)?
00:33:28	Anthony Skandalakis:	mod(p)
00:37:47	Christian Jonker:	12
00:37:48	Ren Hong:	12?
00:38:37	Omer Bin Waseem:	8
00:39:13	Omer Bin Waseem:	24
00:39:30	Omer Bin Waseem:	396
00:40:38	Omer Bin Waseem:	13x2
00:40:43	Aprajita Shrivas:	2,13
00:41:07	Aprajita Shrivas:	1
00:41:11	Aprajita Shrivas:	12
00:41:13	Christian Jonker:	12
00:43:22	Naman Rao:	15048
00:45:47	Aprajita Shrivas:	yuppp
00:47:22	Naman Rao:	the answer is 853
00:48:35	Thanh Minh Tien Ngo:	discrete maths xD
00:48:43	Naman Rao:	86153
00:48:51	Naman Rao:	yeah..
00:50:26	Naman Rao:	853
00:53:18	Anthony Skandalakis:	that is still an int
00:57:58	Omer Bin Waseem:	thank you, see you next week
00:57:59	Jessy Prociv:	thanks les
00:58:02	Zhi Jie Chair:	thank you
00:58:03	Tze Tan:	Thanks
